FRA_vichy_france = {

	FRA_case_anton_mission = {

		icon = generic_tank

		available = {
			is_subject = no
			has_war_with = GER
		}

		days_mission_timeout = 7
		fire_only_once = yes

		activation = {
			original_tag = FRA
			has_government = fascism
			is_subject_of = GER
			has_country_flag = case_anton
		}

		complete_effect = {
			custom_effect_tooltip = FRA_case_anton_mission_tt
		}

		timeout_effect = {
			transfer_navy = { target = GER }
			GER = { annex_country = { target = ROOT } }
			if = {
				limit = {
					NOT = { has_country_flag = scuttled_fleet }
				}
				GER = { news_event = { id = wtt_news.23 hours = 6 } }
			}
			if = {
				limit = {
					has_country_flag = scuttled_fleet
				}
				GER = { news_event = { id = wtt_news.24 hours = 6 } }
			}
			custom_effect_tooltip = GAME_OVER_TT
		}
	}
	FRA_reorganize_aviation_industry_north = {
		available = {  }

		visible = { has_completed_focus = FRA_reorganize_the_aviation_industry }

		remove_effect = { 
			set_country_flag = FRA_SNCAN_formed
			random_owned_state = {
				limit = { 
					OR = {
						state = 25
					}
					is_fully_controlled_by = ROOT 
					free_building_slots = {
						building = arms_factory
						size > 0
						include_locked = yes
					}
				}
				add_building_construction = {
					type = arms_factory
					level = 1
					instant_build = yes
				}
			}
		}
		days_remove = 60
		cost = 10
		fire_only_once = yes
		ai_will_do = {
			factor = 5
		}
		
	}
	FRA_reorganize_aviation_industry_west = {
		available = {  }

		visible = { has_completed_focus = FRA_reorganize_the_aviation_industry }

		remove_effect = { 
			set_country_flag = FRA_SNCAO_formed
			random_owned_state = {
				limit = { 
					OR = {
						state = 26
					}
					is_fully_controlled_by = ROOT 
					free_building_slots = {
						building = arms_factory
						size > 0
						include_locked = yes
					}
				}
				add_building_construction = {
					type = arms_factory
					level = 1
					instant_build = yes
				}
			}
		}
		days_remove = 60
		cost = 10
		fire_only_once = yes
		ai_will_do = {
			factor = 5
		}
	}
	FRA_reorganize_aviation_industry_center = {
		available = {  }

		visible = { has_completed_focus = FRA_reorganize_the_aviation_industry }

		remove_effect = { 
			set_country_flag = FRA_SNCAC_formed
			random_owned_state = {
				limit = { 
					OR = {
						state = 33
					}
					is_fully_controlled_by = ROOT 
					free_building_slots = {
						building = arms_factory
						size > 0
						include_locked = yes
					}
				}
				add_building_construction = {
					type = arms_factory
					level = 1
					instant_build = yes
				}
			}
		}
		days_remove = 60
		cost = 10
		fire_only_once = yes
		ai_will_do = {
			factor = 5
		}
	}
	FRA_reorganize_aviation_industry_south_east = {
		available = {  }

		visible = { has_completed_focus = FRA_reorganize_the_aviation_industry }

		remove_effect = { 
			set_country_flag = FRA_SNCASE_formed
			random_owned_state = {
				limit = { 
					OR = {
						state = 31
					}
					is_fully_controlled_by = ROOT 
					free_building_slots = {
						building = arms_factory
						size > 0
						include_locked = yes
					}
				}
				add_building_construction = {
					type = arms_factory
					level = 1
					instant_build = yes
				}
			}
		}
		days_remove = 60
		cost = 10
		fire_only_once = yes
		ai_will_do = {
			factor = 5
		}
	}
	FRA_reorganize_aviation_industry_south_west = {
		available = {  }

		visible = { has_completed_focus = FRA_reorganize_the_aviation_industry }

		remove_effect = { 
			set_country_flag = FRA_SNCASO_formed
			random_owned_state = {
				limit = { 
					OR = {
						state = 20
					}
					is_fully_controlled_by = ROOT 
					free_building_slots = {
						building = arms_factory
						size > 0
						include_locked = yes
					}
				}
				add_building_construction = {
					type = arms_factory
					level = 1
					instant_build = yes
				}
			}
		}
		days_remove = 60
		cost = 10
		fire_only_once = yes
		ai_will_do = {
			factor = 5
		}
	}
}
