
strategic_region={
	id=212
	name="STRATEGICREGION_212"
	provinces={
		1028 1064 1151 1206 2064 7030 7073 7144 7156 7216 10028 10097 10844 10869 10907 11974 11999 12044 12071 12099 12733 12771 12816 12816 13331 13332 13333 13334 13335 13337 13338 
	}
	weather={
	}
}
