focus_tree = {
	id = japan_wtt_focus

	country = {
		factor = 0
		modifier = {
			add = 20
			tag = JAP
		}
	}


	default = no

	continuous_focus_position = { x = 20 y = 1200 }

	focus = {
		id = JAP_purge_the_kodoha_faction
		icon = GFX_goal_jap_kodoha
		x = 7
		y = 0

		cost = 10

		ai_will_do = {
			factor = 4
		}

		available = {

		}

		bypass = {

		}

		cancel_if_invalid = no
		continue_if_invalid = yes
		available_if_capitulated = no

		complete_tooltip = {

		}

		completion_reward = {
			add_stability = 0.1
			add_popularity  = {
				ideology = fascism
				popularity = 0.2
			}
		}
	}

	focus = {
		id = JAP_liaison_conference
		icon = GFX_goal_generic_intelligence_exchange
		prerequisite = { focus = JAP_purge_the_kodoha_faction }
		x = 5
		y = 1
		relative_position_id = JAP_purge_the_kodoha_faction

		cost = 1

		ai_will_do = {
			factor = 2
		}

		available = {

		}

		bypass = {

		}

		cancel_if_invalid = no
		continue_if_invalid = yes
		available_if_capitulated = no

		complete_tooltip = {

		}

		completion_reward = {
			add_ideas = JAP_liaison_conference
			every_army_leader = {
				add_planning = 1
			}
		}
	}


	focus = {
		id = JAP_intervene_in_china
		icon = GFX_goal_jap_chi_war
		prerequisite = { focus = JAP_liaison_conference }
		will_lead_to_war_with = CHI
		x = -3
		y = 1
		relative_position_id = JAP_liaison_conference

		cost = 10

		available = {
			date > 1937.5.1
			NOT = { has_war_with = CHI }
		}
		bypass = {
		}

		cancel_if_invalid = no
		continue_if_invalid = yes
		available_if_capitulated = no

		ai_will_do = {
			factor = 10
			modifier = {
				factor = 0
				date < 1937.1.1
			}
		}

		select_effect = {}
		completion_reward = {
		
			add_named_threat = { threat = 2 name = JAP_CHIONE }
			add_ideas = JAP_War_of_Resistance1
			
			army_experience = 1000
			air_experience = 1000
			navy_experience = 1000
			
			transfer_state = 608
		    transfer_state = 614
		    transfer_state = 597
		    transfer_state = 743
		    transfer_state = 598
		    transfer_state = 613
		    transfer_state = 596
		    transfer_state = 595
		    transfer_state = 593
		    transfer_state = 592
		    transfer_state = 594
		    transfer_state = 591
			
			hidden_effect = {
				
				news_event = { id = news.334 }
				
				USA = {
					add_political_power = 100
					add_war_support = 0.10
					air_experience = 300
				}
				SOV = {
					army_experience = 1000
					air_experience  = 300
				}
				GER = {
					air_experience  = 300
				}
				ITA = {
					air_experience  = 300
				}
				ENG = {
					army_experience = 150
					air_experience  = 150
				}
                FRA = {
					army_experience = 100
				}	
				CAN = {
					army_experience = 150
				}
				SAF = {
					army_experience = 150
				}
				RAJ = {
					army_experience = 150
				}
				AST = {
					army_experience = 150
				}
				NZL = {
					army_experience = 150
				}	
				ROM = {
					army_experience = 100
				}		
				HUN = {
					army_experience = 100
				}	
				BUL = {
					army_experience = 100
				}					
			}
		}
	}

	focus = {
		id = JAP_secure_china
		icon = GFX_goal_jap_secure_china
		prerequisite = { focus = JAP_intervene_in_china }
		x = 0
		y = 1
		relative_position_id = JAP_intervene_in_china

		cost = 10

		ai_will_do = {
			factor = 3
			modifier = {
				factor = 0
				threat < 0.9
			}
		}

		available = {
			date > 1938.02.02
		}

		bypass = {

		}

		cancel_if_invalid = no
		continue_if_invalid = yes
		available_if_capitulated = no

		complete_tooltip = {

		}

		completion_reward = {
			hidden_effect = {
				USA = { add_war_support = 0.10 }
			}
			add_named_threat = { threat = 7 name = JAP_CHITWO }
			swap_ideas = {
				remove_idea = JAP_War_of_Resistance1
				add_idea = JAP_War_of_Resistance2
			}
			
			transfer_state = 599
			transfer_state = 602
			transfer_state = 600
			transfer_state = 749
			transfer_state = 606
			transfer_state = 607
			transfer_state = 620
			transfer_state = 325
			transfer_state = 747

			army_experience = 1000
			air_experience = 1000
			navy_experience = 1000
		}
	}

	focus = {
		id = JAP_develop_chinese_resources
		icon = GFX_goal_generic_construct_civilian
		prerequisite = { focus = JAP_secure_china }
		x = 0
		y = 2
		relative_position_id = JAP_intervene_in_china

		cost = 10

		ai_will_do = {
			factor = 4
		}

		available = {
		}

		bypass = {
		}

		cancel_if_invalid = no
		continue_if_invalid = yes
		available_if_capitulated = no

		complete_tooltip = {

		}

		completion_reward = {
			if = {
				limit = { has_dlc = "Waking the Tiger" }
				unlock_decision_category_tooltip = prospect_for_resources
			}
		}
	}

	focus = {
		id = JAP_strike_south_doctrine
		icon = GFX_goal_jap_strike_south
		prerequisite = { focus = JAP_liaison_conference }
		x = 0
		y = 1
		relative_position_id = JAP_liaison_conference

		cost = 5

		ai_will_do = {
			factor = 2
			modifier = {
				factor = 2
				FRA = { has_war = yes }
			}
		}

		available = {
		}

		bypass = {
		}

		cancel_if_invalid = no
		continue_if_invalid = yes
		available_if_capitulated = no

		complete_tooltip = {

		}

		completion_reward = {
			add_tech_bonus = {
				name = JAP_strike_south_doctrine
				bonus = 1.0
				uses = 2
				category = naval_doctrine
			}
#			unlock_decision_tooltip = JAP_pressure_france
		}
	}

	focus = {
		id = JAP_non_aggression_pact_with_the_soviet_union
		icon = GFX_goal_ger_molrib_pact
		prerequisite = { focus = JAP_strike_south_doctrine }
		x = -1
		y = 1
		relative_position_id = JAP_strike_south_doctrine

		cost = 5

		ai_will_do = {
			factor = 2
		}

		available = {

		}

		bypass = {
			has_non_aggression_pact_with = SOV
		}

		cancel_if_invalid = no
		continue_if_invalid = yes
		available_if_capitulated = no

		complete_tooltip = {

		}

		completion_reward = {
			SOV = { country_event = { id = wtt_japan.11 } }
		}
	}


	focus = {
		id = JAP_the_manchurian_project
		icon = GFX_focus_jap_manchurian_project
		x = 18
		y = 0

		cost = 2

		ai_will_do = {
			factor = 1
			modifier = {
				factor = 2
				OR = {
					has_completed_focus = JAP_purge_the_kodoha_faction
				}
			}
			modifier = {
				factor = 10
				has_completed_focus = JAP_technological_exchange
			}
		}

		available = {
		}

		bypass = {

		}

		cancel_if_invalid = no
		continue_if_invalid = yes
		available_if_capitulated = no

		complete_tooltip = {
		}

		completion_reward = {
			MAN = {
				add_stability = 0.1
				add_war_support = 0.1
				add_political_power = 150
			}
		}
	}

	focus = {
		id = JAP_army_expansion_law
		icon = GFX_goal_jap_army_expansion
		x = 6
		y = 0
		relative_position_id = JAP_the_manchurian_project

		cost = 5



		available = {

		}

		bypass = {

		}

		cancel_if_invalid = no
		continue_if_invalid = yes
		available_if_capitulated = no

		complete_tooltip = {

		}

		completion_reward = {
			add_tech_bonus = {
				bonus = 1.0
				uses = 2
				category = land_doctrine
			}
			add_tech_bonus = {
				name = JAP_armored_divisions
				bonus = 1.25
				uses = 2
				category = armor
			}
			army_experience = 30
		}
	}

	focus = {
		id = JAP_small_arms_modernization
		icon = GFX_goal_generic_small_arms
		prerequisite = { focus = JAP_army_expansion_law }
		x = -1
		y = 1
		relative_position_id = JAP_army_expansion_law

		cost = 10



		available = {

		}

		bypass = {

		}

		cancel_if_invalid = no
		continue_if_invalid = yes
		available_if_capitulated = no

		complete_tooltip = {

		}

		completion_reward = {
			add_tech_bonus = {
				name = JAP_small_arms_modernization
				bonus = 1.5
				uses = 2
				category = infantry_weapons
			}
		}
	}

	focus = {
		id = JAP_supremacy_of_technology
		icon = GFX_goal_generic_production
		prerequisite = { focus = JAP_small_arms_modernization }

		x = 0
		y = 1
		relative_position_id = JAP_small_arms_modernization

		cost = 5

		ai_will_do = {
			factor = 1
			modifier = {
				factor = 2
				has_completed_focus = JAP_strengthen_civilian_government
			}
		}

		available = {

		}

		bypass = {

		}

		cancel_if_invalid = no
		continue_if_invalid = yes
		available_if_capitulated = no

		complete_tooltip = {

		}

		completion_reward = {
			add_ideas = JAP_supremacy_of_technology
		}
	}

	focus = {
		id = JAP_armored_divisions
		icon = GFX_goal_generic_army_tanks
		prerequisite = { focus = JAP_supremacy_of_technology }
		x = -1
		y = 2
		relative_position_id = JAP_supremacy_of_technology

		cost = 5

		ai_will_do = {
			factor = 1
		}

		available = {

		}

		bypass = {

		}

		cancel_if_invalid = no
		continue_if_invalid = yes
		available_if_capitulated = no

		complete_tooltip = {

		}

		completion_reward = {
			add_tech_bonus = {
				name = JAP_armored_divisions
				bonus = 1
				uses = 1
				category = armor
			}
		}
	}

	focus = {
		id = JAP_naval_landings
		icon = GFX_goal_generic_position_armies
		prerequisite = { focus = JAP_supremacy_of_technology }
		x = 2
		y = 0
		relative_position_id = JAP_armored_divisions

		cost = 5

		ai_will_do = {
			factor = 3
		}

		available = {

		}

		bypass = {

		}

		cancel_if_invalid = no
		continue_if_invalid = yes
		available_if_capitulated = no

		complete_tooltip = {

		}

		completion_reward = {
			add_tech_bonus = {
				name = jap_amphibious_focus
				ahead_reduction = 5
				uses = 2
				technology = mtg_landing_craft
				technology = mtg_tank_landing_craft
			}
		}
	}

	focus = {
		id = JAP_strike_on_the_southern_resource_area
		icon = GFX_focus_jap_strike_south
		prerequisite = { focus = JAP_strike_south_doctrine }
		x = 0
		y = 2
		relative_position_id = JAP_strike_south_doctrine

		cost = 5

		ai_will_do = {
			factor = 10
			modifier = {
				factor = 0
				date < 1940.1.1
			}
			modifier = {
				factor = 0
				ENG = { has_war = no }
				HOL = { has_war = no }
			}
		}

		available = {
			date > 1940.12.2


		}

		will_lead_to_war_with = USA
		will_lead_to_war_with = ENG

		bypass = {
			OR = {
				has_war_with = ENG
				has_war_with = USA
			}
		}


		cancel_if_invalid = no
		continue_if_invalid = yes
		available_if_capitulated = no


		completion_reward = {
			country_event = gduevents.13
			unlock_decision_tooltip = GDU_JAP_pearl_harbor
		}
	}

	focus = {
		id = JAP_alliance_with_siam
		icon = GFX_goal_jap_annex_sia
		prerequisite = { focus = JAP_strike_south_doctrine }
		x = 1
		y = 1
		relative_position_id = JAP_strike_south_doctrine

		cost = 0.2

		ai_will_do = {
			factor = 3
		}

		available = {
			country_exists = SIA
			controls_state = 671
		}


		cancel_if_invalid = no
		continue_if_invalid = yes
		available_if_capitulated = no

		complete_tooltip = {

		}

		completion_reward = {
			annex_country = {
				target = SIA
				transfer_troops = no
			}
		}



	}

	focus = {
		id = JAP_exploit_the_southern_resource_area
		icon = GFX_goal_generic_construction2
		prerequisite = { focus = JAP_strike_on_the_southern_resource_area }
		x = 0
		y = 1
		relative_position_id = JAP_strike_on_the_southern_resource_area

		cost = 10

		ai_will_do = {
			factor = 10
		}

		available = {
			OR = {
				has_full_control_of_state = 333
				has_full_control_of_state = 672
				has_full_control_of_state = 334
			}
			has_full_control_of_state = 336
			has_full_control_of_state = 671
		}

		bypass = {

		}

		cancel_if_invalid = no
		continue_if_invalid = yes
		available_if_capitulated = no

		complete_tooltip = {

		}

		completion_reward = {
			336 = {
				add_resource = {
					type = aluminium
					amount = 22
				}
				add_building_construction = {
					type = infrastructure
					level = 1
					instant_build = yes
				}
			}
			333 = {
				if = {
					limit = { is_fully_controlled_by = ROOT }
					add_building_construction = {
						type = infrastructure
						level = 1
						instant_build = yes
					}
				}
			}
			672 = {
				if = {
					limit = { is_fully_controlled_by = ROOT }
					add_building_construction = {
						type = infrastructure
						level = 1
						instant_build = yes
					}
				}
			}
			334 = {
				if = {
					limit = { is_fully_controlled_by = ROOT }
					add_building_construction = {
						type = infrastructure
						level = 1
						instant_build = yes
					}
				}
			}
			671 = {
				add_resource = {
					type = aluminium
					amount = 10
				}
			}
			if = {
				limit = { has_dlc = "Waking the Tiger" }
				unlock_decision_category_tooltip = prospect_for_resources
			}
		}
	}

	focus = {
		id = JAP_guide_the_zaibatsus
		icon = GFX_focus_jap_zaibatsu
		prerequisite = { focus = JAP_purge_the_kodoha_faction }
		x = -3
		y = 1
		relative_position_id = JAP_purge_the_kodoha_faction

		cost = 10

		ai_will_do = {
			factor = 3
		}

		available = {

		}

		bypass = {

		}

		cancel_if_invalid = no
		continue_if_invalid = yes
		available_if_capitulated = no

		complete_tooltip = {
			random_state = {
				limit = {
					has_state_flag = JAP_zaibatsus_factories
				}
				add_building_construction = {
					type = industrial_complex
					level = 2
					instant_build = yes
				}
			}
			random_state = {
				limit = {
					has_state_flag = JAP_zaibatsus_factories
				}
				add_building_construction = {
					type = industrial_complex
					level = 2
					instant_build = yes
				}
			}

		}

		completion_reward = {
			unlock_decision_category_tooltip = GDU_Zaibatsu_category
			random_owned_controlled_state = {
				limit = {
					ROOT = { has_full_control_of_state = PREV }
					is_core_of = ROOT
					free_building_slots = {
						building = industrial_complex
						size > 1
						include_locked = yes
					}
				}
				add_extra_state_shared_building_slots = 2
				add_building_construction = {
					type = industrial_complex
					level = 2
					instant_build = yes
				}
				set_state_flag = JAP_zaibatsus_factories
			}
			random_owned_controlled_state = {
				limit = {
					ROOT = { has_full_control_of_state = PREV }
					is_core_of = ROOT
					free_building_slots = {
						building = industrial_complex
						size > 1
						include_locked = yes
					}
				}
				add_extra_state_shared_building_slots = 2
				add_building_construction = {
					type = industrial_complex
					level = 2
					instant_build = yes
				}
				set_state_flag = JAP_zaibatsus_factories
			}
		}
	}

	focus = {
		id = JAP_Infra
		relative_position_id = JAP_guide_the_zaibatsus
		x = -2
		y = 1
		prerequisite = { focus = JAP_guide_the_zaibatsus }
		cost = 10
		icon = GFX_goal_ger_infrastructure
		ai_will_do = {
			factor = 5
		}

		completion_reward = {
			528 = {
				add_extra_state_shared_building_slots = 2
				add_building_construction = {
					type = infrastructure
					level = 2
					instant_build = yes
				}
			}
			529 = {
				add_extra_state_shared_building_slots = 2
				add_building_construction = {
					type = infrastructure
					level = 2
					instant_build = yes
				}
			}
			530 = {
				add_extra_state_shared_building_slots = 2
				add_building_construction = {
					type = infrastructure
					level = 2
					instant_build = yes
				}
			}
			531 = {
				add_extra_state_shared_building_slots = 2
				add_building_construction = {
					type = infrastructure
					level = 2
					instant_build = yes
				}
			}
			532 = {
				add_extra_state_shared_building_slots = 2
				add_building_construction = {
					type = infrastructure
					level = 2
					instant_build = yes
				}
			}
			534 = {
				add_extra_state_shared_building_slots = 2
				add_building_construction = {
					type = infrastructure
					level = 2
					instant_build = yes
				}
			}
			535 = {
				add_extra_state_shared_building_slots = 2
				add_building_construction = {
					type = infrastructure
					level = 2
					instant_build = yes
				}
			}
			282 = {
				add_extra_state_shared_building_slots = 2
				add_building_construction = {
					type = infrastructure
					level = 2
					instant_build = yes
				}
			}
			533 = {
				add_extra_state_shared_building_slots = 2
				add_building_construction = {
					type = infrastructure
					level = 2
					instant_build = yes
				}
			}
			536 = {
				add_extra_state_shared_building_slots = 2
				add_building_construction = {
					type = infrastructure
					level = 2
					instant_build = yes
				}
			}
		}
	}

	focus = {
		id = JAP_nationalize_war_industry
		icon = GFX_goal_generic_construct_mil_factory
		prerequisite = { focus = JAP_Infra }
		x = 0
		y = 2
		relative_position_id = JAP_Infra

		cost = 10

		ai_will_do = {
			factor = 3
		}

		available = {

		}

		bypass = {

		}

		cancel_if_invalid = no
		continue_if_invalid = yes
		available_if_capitulated = no


		completion_reward = {
			random_owned_controlled_state = {
				limit = {
					ROOT = { has_full_control_of_state = PREV }
					is_core_of = ROOT
					free_building_slots = {
						building = arms_factory
						size > 1
						include_locked = yes
					}
				}
				add_extra_state_shared_building_slots = 2
				add_building_construction = {
					type = arms_factory
					level = 2
					instant_build = yes
				}
			}
			random_owned_controlled_state = {
				limit = {
					ROOT = { has_full_control_of_state = PREV }
					is_core_of = ROOT
					free_building_slots = {
						building = arms_factory
						size > 1
						include_locked = yes
					}
				}
				add_extra_state_shared_building_slots = 2
				add_building_construction = {
					type = arms_factory
					level = 2
					instant_build = yes
				}
			}
			random_owned_controlled_state = {
				limit = {
					ROOT = { has_full_control_of_state = PREV }
					is_core_of = ROOT
					free_building_slots = {
						building = industrial_complex
						size > 1
						include_locked = yes
					}
				}
				add_extra_state_shared_building_slots = 2
				add_building_construction = {
					type = industrial_complex
					level = 2
					instant_build = yes
				}
			}
			random_owned_controlled_state = {
				limit = {
					ROOT = { has_full_control_of_state = PREV }
					is_core_of = ROOT
					free_building_slots = {
						building = industrial_complex
						size > 1
						include_locked = yes
					}
				}
				add_extra_state_shared_building_slots = 2
				add_building_construction = {
					type = industrial_complex
					level = 2
					instant_build = yes
				}
			}
		}
	}

	focus = {
		id = JAP_coal_liquification
		icon = GFX_goal_generic_oil_refinery
		prerequisite = { focus = JAP_Infra }
		x = 1
		y = 1
		relative_position_id = JAP_Infra

		cost = 10

		ai_will_do = {
			factor = 2
		}

		available = {
			528 = { is_fully_controlled_by = ROOT }
		}

		bypass = {

		}

		cancel_if_invalid = no
		continue_if_invalid = yes
		available_if_capitulated = no

		complete_tooltip = {

		}

		completion_reward = {
		MAN = { set_technology = { synth_oil_experiments = 1 }
			add_tech_bonus = {
				name = JAP_coal_liquification
				bonus = 1.0
				uses = 2
				category = synth_resources
			}
			add_tech_bonus = {
				name = JAP_coal_liquification
				ahead_reduction = 3
				uses = 1
				technology = fuel_refining3
			}
			add_tech_bonus = {
				name = JAP_coal_liquification
				ahead_reduction = 3
				uses = 1
				technology = fuel_refining4
			}
			add_tech_bonus = {
				name = JAP_coal_liquification
				ahead_reduction = 3
				uses = 1
				technology = fuel_refining5
			}
		}
			528 = {
				add_extra_state_shared_building_slots = 1
				add_building_construction = {
					type = synthetic_refinery
					level = 1
					instant_build = yes
				}
			}
			add_tech_bonus = {
				name = JAP_coal_liquification
				bonus = 1.0
				uses = 2
				category = synth_resources
			}
			add_tech_bonus = {
				name = JAP_coal_liquification
				ahead_reduction = 3
				uses = 1
				technology = fuel_refining3
			}
			add_tech_bonus = {
				name = JAP_coal_liquification
				ahead_reduction = 3
				uses = 1
				technology = fuel_refining4
			}
			add_tech_bonus = {
				name = JAP_coal_liquification
				ahead_reduction = 3
				uses = 1
				technology = fuel_refining5
			}
		}
	}

	focus = {
		id = JAP_national_mobilization_law
		icon = GFX_goal_generic_axis_build_infantry
		prerequisite = { focus = JAP_guide_the_zaibatsus }
		x = 2
		y = 1
		relative_position_id = JAP_guide_the_zaibatsus

		cost = 10

		ai_will_do = {
			factor = 2
		}

		available = {

		}

		bypass = {

		}

		cancel_if_invalid = no
		continue_if_invalid = yes
		available_if_capitulated = no

		complete_tooltip = {

		}

		completion_reward = {
			if = {
				limit = {
					has_war_support < 0.5
				}
				add_war_support = 0.1
			}
			else_if = {
				limit = {
					has_idea = war_economy
				}
				add_political_power = 150
			}
			else = {
				add_ideas = war_economy
			}
			MAN = {
				add_ideas = war_economy
			}
		}
	}

	focus = {
		id = JAP_national_research_policy
		icon = GFX_focus_research
		prerequisite = { focus = JAP_national_mobilization_law }
		x = 1
		y = 1
		relative_position_id = JAP_national_mobilization_law

		cost = 10

		ai_will_do = {
			factor = 4
		}

		available = {

		}

		bypass = {

		}

		cancel_if_invalid = no
		continue_if_invalid = yes
		available_if_capitulated = no

		complete_tooltip = {

		}

		completion_reward = {
			add_research_slot = 1
		}
	}

	focus = {
		id = JAP_national_defense_state
		icon = GFX_goal_generic_political_pressure
		prerequisite = { focus = JAP_national_mobilization_law }
		x = -1
		y = 1
		relative_position_id = JAP_national_mobilization_law

		cost = 10

		ai_will_do = {
			factor = 1
		}

		available = {

		}

		bypass = {

		}

		cancel_if_invalid = no
		continue_if_invalid = yes
		available_if_capitulated = no

		complete_tooltip = {

		}

		completion_reward = {
			if = {
				limit = {
					has_war_support < 0.8
				}
				add_war_support = 0.1
			}
			else_if = {
				limit = {
					has_idea = tot_economic_mobilisation
				}
				add_political_power = 150
			}
			else = {
				add_ideas = tot_economic_mobilisation
			}
			MAN = {
				add_ideas = tot_economic_mobilisation
			}
		}
	}

	focus = {
		id = JAP_spiritual_mobilization
		icon = GFX_focus_jap_spiritual_mobilization
		prerequisite = { focus = JAP_national_defense_state }
		x = -1
		y = 1
		relative_position_id = JAP_national_defense_state

		cost = 10

		ai_will_do = {
			factor = 4
		}

		available = {

		}

		bypass = {

		}

		cancel_if_invalid = no
		continue_if_invalid = yes
		available_if_capitulated = no

		complete_tooltip = {

		}

		completion_reward = {
			add_ideas = spiritual_mobilization_idea
		}
	}

	focus = {
		id = JAP_warrior_spirit
		icon = GFX_focus_generic_japanese_imperial_glory
		prerequisite = { focus = JAP_national_defense_state }
		x = 1
		y = 1
		relative_position_id = JAP_national_defense_state

		cost = 10

		ai_will_do = {
			factor = 1
			modifier = {
				factor = 0
				has_war = no
			}
			modifier = {
				factor = 10
				surrender_progress > 0.9
			}
		}

		available = {
			JAP = { surrender_progress > 0.1 }

		}

		bypass = {

		}

		cancel_if_invalid = no
		continue_if_invalid = yes
		available_if_capitulated = no

		complete_tooltip = {

		}

		completion_reward = {
			hidden_effect = {
				set_rule = {
					can_use_kamikaze_pilots = yes
				}
			}
			custom_effect_tooltip = kamikaze_focus_tooltip
			if = {
				limit = {
					has_dlc = "Waking the Tiger"
				}
				custom_effect_tooltip = cost_reduced_last_stand
			}
		}
	}


	focus = {
		id = JAP_expand_the_showa_steel_works
		icon = GFX_goal_generic_construct_civilian
		prerequisite = { focus = JAP_the_manchurian_project }
		x = 2
		y = 1
		relative_position_id = JAP_the_manchurian_project

		cost = 2

		ai_will_do = {
			factor = 2
		}

		available = {
		}

		bypass = {

		}

		cancel_if_invalid = no
		continue_if_invalid = yes
		available_if_capitulated = no

		complete_tooltip = {

		}

		completion_reward = {
			716 = {

				add_resource = {
					type = steel
					amount = 16
				}

				add_extra_state_shared_building_slots = 2
				add_building_construction = {
					type = industrial_complex
					level = 2
					instant_build = yes
				}
			}
		}
	}

	focus = {
		id = JAP_develop_aluminum_sources
		icon = GFX_goal_generic_construction
		prerequisite = { focus = JAP_expand_the_showa_steel_works }
		x = 1
		y = 1
		relative_position_id = JAP_expand_the_showa_steel_works

		allow_branch = {

		}

		cost = 1

		ai_will_do = {
			factor = 2
		}

		available = {

		}

		bypass = {

		}

		cancel_if_invalid = no
		continue_if_invalid = yes
		available_if_capitulated = no

		complete_tooltip = {

		}

		completion_reward = {
			328 = {
				add_resource = {
					type = aluminium
					amount = 22
				}
			}
		}
	}

	focus = {
		id = JAP_expand_manchurian_railways
		icon = GFX_goal_ger_infrastructure
		prerequisite = { focus = JAP_the_manchurian_project }
		x = -2
		y = 1
		relative_position_id = JAP_the_manchurian_project

		cost = 2

		ai_will_do = {
			factor = 1
		}

		available = {
		}

		bypass = {

		}

		cancel_if_invalid = no
		continue_if_invalid = yes
		available_if_capitulated = no

		complete_tooltip = {
			MAN = {
				random_state = {
					limit = {
						has_state_flag = JAP_expand_manchurian_railways_Inf1
					}
					add_building_construction = {
						type = infrastructure
						level = 3
						instant_build = yes
					}
				}
				random_state = {
					limit = {
						has_state_flag = JAP_expand_manchurian_railways_Inf2
					}
					add_building_construction = {
						type = infrastructure
						level = 3
						instant_build = yes
					}
				}
			}
		}

		completion_reward = {
			MAN = {
				716 = {
					add_building_construction = {
						type = infrastructure
						level = 1
						instant_build = yes
					}
					set_state_flag = JAP_expand_manchurian_railways_Inf1
				}
				328 = {
					add_building_construction = {
						type = infrastructure
						level = 2
						instant_build = yes
					}
					set_state_flag = JAP_expand_manchurian_railways_Inf2
				}
			}
		}
	}

	focus = {
		id = JAP_japanese_settlement
		icon = GFX_goal_generic_construct_civ_factory
		prerequisite = { focus = JAP_expand_manchurian_railways }
		x = 0
		y = 1
		relative_position_id = JAP_expand_manchurian_railways

		cost = 2

		ai_will_do = {
			factor = 1
		}

		available = {
		}

		bypass = {

		}

		cancel_if_invalid = no
		continue_if_invalid = yes
		available_if_capitulated = no

		complete_tooltip = {

		}

		completion_reward = {
			715 = { add_extra_state_shared_building_slots = 2 }
			610 = { add_extra_state_shared_building_slots = 2 }
			328 = { add_extra_state_shared_building_slots = 2 }
		}
	}

	focus = {
		id = JAP_light_industry_development
		icon = GFX_goal_generic_construct_mil_factory
		prerequisite = { focus = JAP_japanese_settlement }
		x = -1
		y = 1
		relative_position_id = JAP_japanese_settlement

		cost = 2

		ai_will_do = {
			factor = 2
		}

		available = {
		}

		bypass = {

		}

		cancel_if_invalid = no
		continue_if_invalid = yes
		available_if_capitulated = no

		complete_tooltip = {

		}

		completion_reward = {
			715 = {
				add_extra_state_shared_building_slots = 2
				add_building_construction = {
					type = industrial_complex
					level = 2
					instant_build = yes
				}
			}
		}
	}

	focus = {
		id = JAP_heavy_industry_development
		icon = GFX_goal_generic_build_tank
		prerequisite = { focus = JAP_japanese_settlement }
		x = 1
		y = 1
		relative_position_id = JAP_japanese_settlement

		cost = 2

		ai_will_do = {
			factor = 2
		}

		available = {
		}

		bypass = {

		}

		cancel_if_invalid = no
		continue_if_invalid = yes
		available_if_capitulated = no

		complete_tooltip = {

		}

		completion_reward = {
			716 = {
				add_extra_state_shared_building_slots = 2
				add_building_construction = {
					type = arms_factory
					level = 2
					instant_build = yes
				}
			}
		}
	}



	focus = {
		id = JAP_total_manchurian_integration
		icon = GFX_focus_research
		prerequisite = { focus = JAP_japanese_settlement }
		x = 0
		y = 3
		relative_position_id = JAP_expand_manchurian_railways

		cost = 0

		ai_will_do = {
			factor = 1
		}

		available = {
			MAN = {
				is_subject_of = ROOT
				is_ai = yes
			}
		}

		bypass = {

		}

		cancel_if_invalid = no
		continue_if_invalid = yes
		available_if_capitulated = no

		complete_tooltip = {

		}

		completion_reward = {
			annex_country = {
				target = MAN
				transfer_troops = yes
			}
			add_research_slot = 1
		}
	}


	focus = {
		id = JAP_free_manchuria
		icon = GFX_goal_generic_dangerous_deal
		prerequisite = { focus = JAP_the_manchurian_project }
		x = 0
		y = 1
		relative_position_id = JAP_the_manchurian_project

		cost = 2

		ai_will_do = {
			factor = 1
			modifier = {
				factor = 2
				OR = {
					has_completed_focus = JAP_purge_the_kodoha_faction
				}
			}
			modifier = {
				factor = 10
				has_completed_focus = JAP_technological_exchange
			}
		}

		available = {
			MAN = { is_subject_of = ROOT }
		}

		bypass = {

		}

		cancel_if_invalid = no
		continue_if_invalid = yes
		available_if_capitulated = no

		complete_tooltip = {

		}

		completion_reward = {
			MAN = {
			    add_autonomy_ratio = {
				value = 1.15
				localization = MAN_the_two_emperors
				}
			}
		}
	}

	focus = {
		id = JAP_fortify_the_border
		icon = GFX_goal_generic_construct_military
		prerequisite = {
			focus = JAP_expand_the_showa_steel_works
			focus = JAP_free_manchuria
		}
		x = 1
		y = 2
		relative_position_id = JAP_the_manchurian_project

		cost = 2

		ai_will_do = {
			factor = 1
			modifier = {
				factor = 10
				has_completed_focus = JAP_technological_exchange
			}
		}

		available = {
		}

		bypass = {

		}

		cancel_if_invalid = no
		continue_if_invalid = yes
		available_if_capitulated = no

		complete_tooltip = {

		}

		completion_reward = {
			JAP = {
				every_owned_state = {
					limit = {
						is_core_of = MAN
						any_neighbor_state = {
							is_controlled_by = SOV
						}
					}
					set_building_level = {
						type = bunker
						level = 2
						province = {
							all_provinces = yes
							limit_to_border = yes
							level < 2
						}
					}
				}
			}
			MAN = {
				every_owned_state = {
					limit = {
						is_core_of = MAN
						any_neighbor_state = {
							is_controlled_by = SOV
						}
					}
					set_building_level = {
						type = bunker
						level = 2
						province = {
							all_provinces = yes
							limit_to_border = yes
							level < 2
						}
					}
				}
			}
		}
	}

	focus = {
		id = JAP_modern_artillery
		icon = GFX_goal_generic_air_defense
		prerequisite = { focus =JAP_supremacy_of_technology  }
		x = -2
		y = 1
		relative_position_id = JAP_supremacy_of_technology

		cost = 5

		ai_will_do = {
			factor = 1
		}

		available = {

		}

		bypass = {

		}

		cancel_if_invalid = no
		continue_if_invalid = yes
		available_if_capitulated = no

		complete_tooltip = {

		}

		completion_reward = {
			add_tech_bonus = {
				name = JAP_modern_artillery
				bonus = 1.5
				ahead_reduction = 1
				uses = 2
				category = artillery
			}
		}
	}

	focus = {
		id = JAP_amphibious_armor
		icon = GFX_goal_generic_position_armies
		prerequisite = { focus = JAP_naval_landings }
		prerequisite = { focus = JAP_armored_divisions }
		x = 1
		y = 1
		relative_position_id = JAP_armored_divisions

		cost = 5

		ai_will_do = {
			factor = 3
		}

		available = {

		}

		bypass = {

		}

		cancel_if_invalid = no
		continue_if_invalid = yes
		available_if_capitulated = no

		complete_tooltip = {

		}

		completion_reward = {
            
            add_tech_bonus = {
				name = JAP_armored_divisions
				ahead_reduction = 4
				bonus = 4.0 				
				uses = 1
				technology = amphibious_tank
			}
			add_tech_bonus = {
				name = JAP_armored_divisions
				ahead_reduction = 2.5
				bonus = 2.5 				
				uses = 1
				technology = amphibious_tank_2
			}	

			add_tech_bonus = {
				name = JAP_armored_divisions
				ahead_reduction = 2
				bonus = 1.0
				uses = 1
				technology = amphibious_mechanized_infantry
			}
		}
	}

	focus = {
		id = JAP_bicycle_battalions
		icon = GFX_goal_generic_special_forces
		prerequisite = { focus = JAP_supremacy_of_technology focus = JAP_supremacy_of_will }
		x = 2
		y = 1
		relative_position_id = JAP_supremacy_of_technology

		cost = 5

		ai_will_do = {
			factor = 1
		}

		available = {

		}

		bypass = {

		}

		cancel_if_invalid = no
		continue_if_invalid = yes
		available_if_capitulated = no

		complete_tooltip = {

		}

		completion_reward = {
			set_technology = { bicycle_infantry = 1 }
		}
	}

	focus = {
		id = JAP_army_expansion
		icon = GFX_goal_jap_officer
		prerequisite = { focus = JAP_army_expansion_law }
		x = 1
		y = 1
		relative_position_id = JAP_army_expansion_law

		cost = 5

		ai_will_do = {
			factor = 1
			modifier = {
				factor = 2
			}
		}

		available = {

		}

		bypass = {

		}

		cancel_if_invalid = no
		continue_if_invalid = yes
		available_if_capitulated = no

		complete_tooltip = {

		}

		completion_reward = {
			custom_effect_tooltip = available_chief_of_army
			show_ideas_tooltip = hajime_sugiyama
		}
	}

	focus = {
		id = JAP_supremacy_of_will
		icon = GFX_focus_jap_supremacy_will
		prerequisite = { focus = JAP_army_expansion }
		x = 0
		y = 1
		relative_position_id = JAP_army_expansion

		cost = 5

		ai_will_do = {
			factor = 1
			modifier = {
				factor = 2
			}
		}

		available = {

		}

		bypass = {

		}

		cancel_if_invalid = no
		continue_if_invalid = yes
		available_if_capitulated = no

		complete_tooltip = {

		}

		completion_reward = {
			add_ideas = JAP_superior_will
		}
	}

	focus = {
		id = JAP_fighter_modernization
		icon = GFX_goal_jap_aviation
		prerequisite = { focus = JAP_army_expansion_law focus = JAP_new_naval_estimates }
		x = 4
		y = 2
		relative_position_id = JAP_army_expansion_law

		cost = 5

		ai_will_do = {
			factor = 1
			modifier = {
				factor = 2
				has_completed_focus = JAP_purge_the_kodoha_faction
			}
		}

		available = {

		}

		bypass = {

		}

		cancel_if_invalid = no
		continue_if_invalid = yes
		available_if_capitulated = no

		complete_tooltip = {

		}

		completion_reward = {
			add_tech_bonus = {
				name = JAP_fighter_modernization
				bonus = 1.0
				uses = 3
				category = air_doctrine
			}
		}
	}

	focus = {
		id = JAP_range_focus
		icon = GFX_goal_generic_air_production
		prerequisite = { focus = JAP_fighter_modernization }
		x = -1
		y = 1
		relative_position_id = JAP_fighter_modernization

		cost = 5

		ai_will_do = {
			factor = 1
		}

		available = {

		}

		bypass = {

		}

		cancel_if_invalid = no
		continue_if_invalid = yes
		available_if_capitulated = no

		complete_tooltip = {

		}

		completion_reward = {
			custom_effect_tooltip = available_designer
			show_ideas_tooltip = aichi
		}
	}

	focus = {
		id = JAP_agility_focus
		icon = GFX_goal_generic_air_production
		prerequisite = { focus = JAP_fighter_modernization }
		x = 1
		y = 1
		relative_position_id = JAP_fighter_modernization

		cost = 5

		ai_will_do = {
			factor = 1
			modifier = {
				factor = 2
				has_completed_focus = JAP_purge_the_kodoha_faction
			}
		}

		available = {

		}

		bypass = {

		}

		cancel_if_invalid = no
		continue_if_invalid = yes
		available_if_capitulated = no

		complete_tooltip = {

		}

		completion_reward = {
			custom_effect_tooltip = available_designer
			show_ideas_tooltip = mitsubishi
		}
	}

	focus = {
		id = JAP_the_zero
		icon = GFX_focus_jap_zero
		prerequisite = { focus = JAP_first_air_fleet }
		prerequisite = { focus = JAP_agility_focus }
		x = 1
		y = 1
		relative_position_id = JAP_agility_focus

		cost = 10

		ai_will_do = {
			factor = 1
			modifier = {
				factor = 2
				has_completed_focus = JAP_purge_the_kodoha_faction
			}
		}

		available = {

		}

		bypass = {
			has_tech = cv_fighter2
		}

		cancel_if_invalid = no
		continue_if_invalid = yes
		available_if_capitulated = no

		complete_tooltip = {

		}

		completion_reward = {
			custom_effect_tooltip = JAP_the_zero_tt
			hidden_effect = { set_technology = { cv_fighter2 = 1 } }
		}
	}

	focus = {
		id = JAP_bomber_modernization
		icon = GFX_goal_jap_bomber
		prerequisite = { focus = JAP_range_focus focus = JAP_agility_focus }
		x = 0
		y = 2
		relative_position_id = JAP_fighter_modernization

		cost = 10

		ai_will_do = {
			factor = 1
		}

		available = {

		}

		bypass = {

		}

		cancel_if_invalid = no
		continue_if_invalid = yes
		available_if_capitulated = no

		complete_tooltip = {

		}

		completion_reward = {

			add_tech_bonus = {
				name = JAP_naval_air_effort
				bonus = 1.00
				uses = 1
				technology = naval_bomber2
				ahead_reduction = 0.2
			}
            add_tech_bonus = {
				name = JAP_naval_air_effort
				bonus = 1.00
				uses = 1
				technology = cv_naval_bomber2
				ahead_reduction = 0.2
			}
		}
	}

	focus = {
		id = JAP_strategic_bomber_effort
		icon = GFX_goal_generic_air_bomber
		prerequisite = { focus = JAP_range_focus }
		x = -1
		y = 3
		relative_position_id = JAP_fighter_modernization

		cost = 10

		ai_will_do = {
			factor = 1
		}

		available = {

		}

		bypass = {

		}

		cancel_if_invalid = no
		continue_if_invalid = yes
		available_if_capitulated = no

		complete_tooltip = {

		}

		completion_reward = {
			add_tech_bonus = {
				name = JAP_strategic_bomber_effort
				bonus = 1.0
				uses = 2
				category = cat_strategic_bomber
			}
			add_tech_bonus = {
				name = JAP_naval_air_effort
				bonus = 1.00
				uses = 1
				technology = CAS2
				ahead_reduction = 0.5
			}
			add_tech_bonus = {
				name = JAP_naval_air_effort
				bonus = 1.00
				uses = 1
				technology = tactical_bomber2
				ahead_reduction = 0.5
			}
		}
	}

	focus = {
		id = JAP_unified_fighter_development
		icon = GFX_goal_generic_air_fighter
		prerequisite = { focus = JAP_agility_focus }
		x = 1
		y = 3
		relative_position_id = JAP_fighter_modernization

		cost = 10

		ai_will_do = {
			factor = 2
		}

		available = {

		}

		bypass = {

		}

		cancel_if_invalid = no
		continue_if_invalid = yes
		available_if_capitulated = no

		complete_tooltip = {

		}

		completion_reward = {
			custom_effect_tooltip = JAP_fighters
			hidden_effect = {
				set_technology = { fighter2 = 1 }
			}
		}
	}

	focus = {
		id = JAP_jet_prototypes
		icon = GFX_goal_generic_build_airforce
		prerequisite = { focus = JAP_unified_fighter_development focus = JAP_strategic_bomber_effort }
		x = 0
		y = 4
		relative_position_id = JAP_fighter_modernization

		cost = 10

		ai_will_do = {
			factor = 1
		}

		available = {

		}

		bypass = {

		}

		cancel_if_invalid = no
		continue_if_invalid = yes
		available_if_capitulated = no

		complete_tooltip = {

		}

		completion_reward = {
			add_tech_bonus = {
				name = JAP_jet_prototypes
				bonus = 1.0
				uses = 2
				category = jet_technology
			}
		}
	}

	focus = {
		id = JAP_new_naval_estimates
		icon = GFX_goal_jap_new_naval_estimates
		x = 8
		y = 0
		relative_position_id = JAP_army_expansion_law

		cost = 5

		ai_will_do = {
			factor = 1
			modifier = {
				factor = 2
				has_completed_focus = JAP_purge_the_kodoha_faction
			}
		}

		available = {

		}

		bypass = {

		}

		cancel_if_invalid = no
		continue_if_invalid = yes
		available_if_capitulated = no

		complete_tooltip = {
			random_state = {
				limit = {
					has_state_flag = JAP_new_naval_estimates_DY1
				}
				add_building_construction = {
					type = dockyard
					level = 2
					instant_build = yes
				}
			}
			random_state = {
				limit = {
					has_state_flag = JAP_new_naval_estimates_DY2
				}
				add_building_construction = {
					type = dockyard
					level = 2
					instant_build = yes
				}
			}
		}

		completion_reward = {
			random_owned_controlled_state = {
				limit = {
					ROOT = { has_full_control_of_state = PREV }
					is_core_of = ROOT
					free_building_slots = {
						building = dockyard
						size > 1
						include_locked = yes
					}
				}
				add_extra_state_shared_building_slots = 2
				add_building_construction = {
					type = dockyard
					level = 2
					instant_build = yes
				}
				set_state_flag = JAP_new_naval_estimates_DY1
			}
			random_owned_controlled_state = {
				limit = {
					ROOT = { has_full_control_of_state = PREV }
					is_core_of = ROOT
					free_building_slots = {
						building = dockyard
						size > 1
						include_locked = yes
					}
				}
				add_extra_state_shared_building_slots = 2
				add_building_construction = {
					type = dockyard
					level = 2
					instant_build = yes
				}
				set_state_flag = JAP_new_naval_estimates_DY2
			}
		}
	}

	focus = {
		id = JAP_carrier_warfare_experiments
		icon = GFX_focus_jap_carrier_exp
		prerequisite = { focus = JAP_new_naval_estimates }
		x = -1
		y = 1
		relative_position_id = JAP_new_naval_estimates

		cost = 5

		ai_will_do = {
			factor = 1
			modifier = {
				factor = 2
				has_completed_focus = JAP_purge_the_kodoha_faction
			}
		}

		available = {

		}

		bypass = {

		}

		cancel_if_invalid = no
		continue_if_invalid = yes
		available_if_capitulated = no

		complete_tooltip = {

		}

		completion_reward = {
			add_tech_bonus = {
				name = JAP_carrier_warfare_experiments
				bonus = 1.0
				uses = 2
				category = naval_doctrine
			}
						add_tech_bonus = {
				name = JAP_carrier_warfare_experiments
				bonus = 1.0
				uses = 1
				ahead_reduction = 0.5
				category = cv_tech
			}
			navy_experience = 50
		}
	}

	focus = {
		id = JAP_expand_the_snlf
		icon = GFX_goal_jap_expand_snlf
		prerequisite = { focus = JAP_carrier_warfare_experiments focus = JAP_supremacy_of_the_battlefleet }
		x = 0
		y = 2
		relative_position_id = JAP_new_naval_estimates

		cost = 5

		ai_will_do = {
			factor = 1
			modifier = {
				factor = 2
				has_completed_focus = JAP_purge_the_kodoha_faction
			}
		}

		available = {

		}

		bypass = {

		}

		cancel_if_invalid = no
		continue_if_invalid = yes
		available_if_capitulated = no

		complete_tooltip = {

		}

		completion_reward = {
			add_ideas = JAP_expand_the_snlf
			add_tech_bonus = {
				name = JAP_expand_the_snlf
				bonus = 1.0
				uses = 1
				category = marine_tech
			}
		}
	}

	focus = {
		id = JAP_first_air_fleet
		icon = GFX_focus_jap_carrier_exp
		prerequisite = { focus = JAP_carrier_warfare_experiments }
		x = 0
		y = 2
		relative_position_id = JAP_carrier_warfare_experiments

		cost = 5

		ai_will_do = {
			factor = 1
			modifier = {
				factor = 2
				has_completed_focus = JAP_purge_the_kodoha_faction
			}
		}

		available = {

		}

		bypass = {

		}

		cancel_if_invalid = no
		continue_if_invalid = yes
		available_if_capitulated = no

		complete_tooltip = {

		}

		completion_reward = {
			add_ideas = JAP_first_air_fleet
			navy_experience = 50
		}
	}

	focus = {
		id = JAP_modern_escorts
		icon = GFX_goal_generic_navy_anti_submarine
		prerequisite = { focus = JAP_first_air_fleet focus = JAP_the_ultimate_battleship }
		x = 1
		y = 1
		relative_position_id = JAP_first_air_fleet

		cost = 5

		ai_will_do = {
			factor = 1
		}

		available = {

		}

		bypass = {

		}

		cancel_if_invalid = no
		continue_if_invalid = yes
		available_if_capitulated = no

		complete_tooltip = {

		}

		completion_reward = {
			add_tech_bonus = {
				name = JAP_modern_escorts
				bonus = 1.0
				uses = 1
				category = dd_tech
			}
		}
	}

	focus = {
		id = JAP_supremacy_of_the_battlefleet
		icon = GFX_goal_jap_battlefleet
		prerequisite = { focus = JAP_new_naval_estimates }
		x = 1
		y = 1
		relative_position_id = JAP_new_naval_estimates

		cost = 5

		ai_will_do = {
			factor = 1
		}

		available = {

		}

		bypass = {

		}

		cancel_if_invalid = no
		continue_if_invalid = yes
		available_if_capitulated = no

		complete_tooltip = {

		}

		completion_reward = {
			add_tech_bonus = {
				name = JAP_supremacy_of_the_battlefleet
				bonus = 1
				uses = 1
				category = bb_tech
				ahead_reduction = 1
			}
			custom_effect_tooltip = available_designer
			show_ideas_tooltip = kure_naval_arsenal
		}
	}

	focus = {
		id = JAP_the_ultimate_battleship
		icon = GFX_goal_generic_navy_battleship
		prerequisite = { focus = JAP_supremacy_of_the_battlefleet }
		x = 0
		y = 2
		relative_position_id = JAP_supremacy_of_the_battlefleet

		cost = 5

		ai_will_do = {
			factor = 1
		}

		available = {

		}

		bypass = {

		}

		cancel_if_invalid = no
		continue_if_invalid = yes
		available_if_capitulated = no

		complete_tooltip = {

		}

		completion_reward = {
			if = {
				limit = {
					not = { has_dlc = "Man the Guns" }
				}
				add_tech_bonus = {
					name = JAP_the_ultimate_battleship
					bonus = 3.0
					uses = 1
					category = shbb_tech
				}
			}
			else = {
				if = {
					limit = {
						not = { has_tech = ship_hull_super_heavy }
					}
					set_technology = {
						ship_hull_super_heavy = 1
					}
				}
				create_equipment_variant = {
					name = "Yamato Class"
					type = ship_hull_super_heavy_1
					name_group = JAP_BB_HISTORICAL
					parent_version = 0
					modules = {
						fixed_ship_battery_slot = ship_super_heavy_battery_1
						fixed_ship_anti_air_slot = ship_anti_air_2
						fixed_ship_fire_control_system_slot = ship_fire_control_system_1
						fixed_ship_radar_slot = empty
						fixed_ship_engine_slot = heavy_ship_engine_2
						fixed_ship_secondaries_slot = ship_secondaries_2
						fixed_ship_armor_slot = ship_armor_shbb
						front_1_custom_slot = ship_anti_air_1
						front_2_custom_slot = empty
						mid_1_custom_slot = empty
						mid_2_custom_slot = ship_secondaries_2
						mid_3_custom_slot = ship_secondaries_2
						rear_1_custom_slot = ship_super_heavy_battery_1
						rear_2_custom_slot = ship_airplane_launcher_1
					}
				}
				custom_effect_tooltip = JAP_yamato_tt
				hidden_effect = {
					add_equipment_production = {
						equipment = {
							type = ship_hull_super_heavy_1
							creator = "JAP"
							version_name = "Yamato Class"
						}
						name = "Yamato"
						requested_factories = 1
						progress = 0.10
						amount = 1
					}
					add_equipment_production = {
						equipment = {
							type = ship_hull_super_heavy_1
							creator = "JAP"
							version_name = "Yamato Class"
						}
						name = "Musashi"
						requested_factories = 1
						progress = 0.15
						amount = 1
					}
				}
			}
		}
	}

	focus = {
		id = JAP_cruiser_modernization
		icon = GFX_goal_generic_navy_cruiser
		prerequisite = { focus = JAP_new_naval_estimates }
		x = 3
		y = 1
		relative_position_id = JAP_new_naval_estimates

		cost = 5

		ai_will_do = {
			factor = 1
		}

		available = {

		}

		bypass = {

		}

		cancel_if_invalid = no
		continue_if_invalid = yes
		available_if_capitulated = no

		complete_tooltip = {

		}

		completion_reward = {
			add_tech_bonus = {
				name = JAP_cruiser_modernization
				bonus = 1
				uses = 1
				ahead_reduction = 0.5
				category = ca_tech
			}
			add_tech_bonus = {
				name = JAP_cruiser_modernization
				bonus = 1
				uses = 1
				ahead_reduction = 0.5				
				category = cl_tech
			}
		}
	}

	focus = {
		id = JAP_long_lance_torpedoes
		icon = GFX_goal_generic_occupy_start_war
		prerequisite = { focus = JAP_cruiser_modernization }
		x = 0
		y = 1
		relative_position_id = JAP_cruiser_modernization

		cost = 5

		ai_will_do = {
			factor = 4
		}

		available = {

		}

		bypass = {

		}

		cancel_if_invalid = no
		continue_if_invalid = yes
		available_if_capitulated = no

		complete_tooltip = {

		}

		completion_reward = {
			add_ideas = the_long_lance
		}
	}

}
