state={
	id=105
	name="STATE_105"
	resources={
		chromium=56.000
		aluminium=90.000
	}

	history={
		victory_points = {
			9809 3
		}
		owner = YUG
		buildings = {
			infrastructure = 3
			industrial_complex = 1
			9809 = {
				naval_base = 1

			}

		}
		add_core_of = YUG

	}

	provinces={
		937 6913 9809 9821 11858 
	}
	manpower=895500
	buildings_max_level_factor=1.000
	state_category=rural
}
