
state={
	id=125
	name="STATE_125"

	history={
		owner = ENG
		victory_points = {
			271 5 
		}
		buildings = {
			infrastructure = 7
			arms_factory = 1
			industrial_complex = 3
			anti_air_building = 2
			radar_station = 1
			air_base = 10
			271 = {
				naval_base = 3

			}

		}
		add_core_of = ENG

	}

	provinces={
		221 271 322 3287 
	}
	manpower=1363174
	buildings_max_level_factor=1.000
	state_category=city
}
