
state={
	id=151
	name="STATE_151"
	manpower = 1854711
	
	
	state_category = city
	
	resources={
		aluminium=15 # was: 24
	}

	history={
		buildings = {
			infrastructure = 6
			industrial_complex = 3
		}
		victory_points = {
			663 10 
		}
	}

	provinces={
		658 661 663 3641 3660 3662 9600 11601 11623 
	}
}
