
state={
	id=159
	name="STATE_159"
	manpower = 5597704
	resources={
		steel=100
		chromium=50
	}

	state_category = metropolis

	history={
		owner = ITA
		victory_points = {
			3780 15 
		}
		buildings = {
			infrastructure = 8
			arms_factory = 7
			industrial_complex = 5
			air_base = 10

		}
		add_core_of = ITA
		1939.1.1 = {
			buildings = {
				arms_factory = 5
				industrial_complex = 8
			}
		}
	}

	provinces={
		607 773 969 3776 3780 6661 9584 11568 11587 11734 
	}
}
