
state={
	id=194
	name="STATE_194"

	history={
		owner = SOV
		buildings = {
			infrastructure = 3
			air_base = 3

		}
		victory_points = {
			6232 1 
		}
		add_core_of = SOV
		add_core_of = BLR

	}

	provinces={
		215 3203 3293 3507 6319 9249 
	}
	manpower=934632
	buildings_max_level_factor=1.000
	state_category=rural
}
