
state={
	id=31
	name="STATE_31"
	manpower = 1825000
	
	state_category = city

	history={
		owner = FRA
		victory_points = {
			6766 5 
		}
		buildings = {
			infrastructure = 6
			industrial_complex = 1
			dockyard = 2
			air_base = 2

		}
		add_core_of = FRA
	}

	provinces={
		929 943 3740 3749 3915 3946 3948 6759 6766 6915 6917 6931 9853 9882 9884 11697 11699 11702 12169 
	}
}
