
state={
	id=455
	name="STATE_455"
	manpower = 932000
	
	state_category = rural

	history={
		owner = ENG
		buildings = {
			infrastructure = 3
			industrial_complex = 1
		}
		victory_points = {
			7151 1 
		}
	}

	provinces={
		1544 4017 4115 4440 4562 4574 4591 4603 7001 7151 7170 10089 11976 13309
	}
}
