
state={
	id=456
	name="STATE_456"
	resources={
		oil=10.000
	}

	history={
		victory_points = {
			11999 1 
		}
		owner = ENG
		buildings = {
			infrastructure = 7

		}

	}

	provinces={
		1028 1064 1151 1206 2064 7030 7073 7144 7156 10028 10097 10844 10869 11974 11999 12044 12071 12099 12733 12771 12816 13331 13332 13333 13334 13335 
	}
	manpower=4224516
	buildings_max_level_factor=1.000
	state_category=rural
}
