
state={
	id=514
	name="STATE_514" # Algerian Desert
	manpower = 207733
	
	state_category = wasteland
	impassable = yes

	history={
owner = FRA
		buildings = {
			infrastructure = 0
		}
	}

	provinces={
		1043 1095 1901 1958 4903 5095 7041 8061 8077 8088 10731 10749 12711 12849 
	}
}
