
state={
	id=522
	name="STATE_522"
	
	manpower = 367200
	state_category = rural

	history={
		owner = AST
		buildings = {
			infrastructure = 5
			air_base = 1
			1652 = {
				naval_base = 1
				coastal_bunker = 1
			}
		}
		victory_points = {
			1652 3 
		}
		add_core_of = AST
	}

	provinces={
		1652 2157 4630 5175 7453 8130 8228 8243 10983 
	}
}
