
state={
	id=563
	name="STATE_563" # Chita
	manpower = 1044310
	state_category = rural
	resources={
		steel=9 # was: 12
		chromium=8 # was: 10
	}

	history={
		owner = SOV
		buildings = {
			infrastructure = 5
			air_base = 2
		}
		add_core_of = SOV
	}

	provinces={
		1672 1826 4675 4677 4719 4832 7725 7786 10559 10565 10574 10643 10681 10683 12556 12622 12641 
	}
}
