
state={
	id=677
	name="STATE_677"

	history={
		owner = FRA
		victory_points = {
			12473 3 
		}
		victory_points = {
			1056 1 
		}
		buildings = {
			infrastructure = 3

		}

	}

	provinces={
		1056 1072 1088 7140 7671 10087 12473 
	}
	manpower=1325594
	buildings_max_level_factor=1.000
	state_category=town
}
