state={
	id=694
	name="STATE_694"
	manpower = 444290

	state_category = town

	history={
		owner = FRA
		victory_points = {
			9377 1
		}
		buildings = {
			infrastructure = 3
			air_base = 1
			177 = {
				naval_base = 3
			}
			9377 = {
				naval_base = 1
			}
		}
	}
	
	provinces={
		177 9377 13084 
	}
}
