
state={
	id=93
	name="STATE_93"

	history={
		victory_points = {
			6557 1 
		}
		owner = POL
		buildings = {
			infrastructure = 5

		}
		add_core_of = POL
		add_core_of = UKR

	}

	provinces={
		422 474 513 535 572 3412 3496 6435 6520 6557 6579 9520 11441 11503 11543 
	}
	manpower=1985600
	buildings_max_level_factor=1.000
	state_category=town
}
