#	Example:
# 
#	example_trigger = {
#		tag = GER
#		is_ai = no
#	}
#
#
#	In a script file:
#
#	trigger = {
#		exampel_trigger = yes
#	}
#
can_ROOT_get_wargoal_on_THIS = {
	exists = yes
	NOT = { is_in_faction_with = ROOT }
	NOT = { is_subject_of = ROOT }
}

#Country scope
is_JAP_or_ally_of_JAP = {
	OR = {
		tag = JAP
		is_in_faction_with = JAP
		is_subject_of = JAP
	}
}

is_border_conflict_defender_vs_FROM = {
	has_variable = ROOT.defender_state_vs_@FROM
}

has_not_initiated_border_incident_with_FROM = {
	custom_trigger_tooltip = {
		tooltip = not_initiated_border_incident_with_FROM
		NOT = {		
			any_state = {
				check_variable = { FROM.defender_state_vs_@PREV = id }
			}
		}
	}
}

has_not_initiated_border_incident_with_ROOT = {
	custom_trigger_tooltip = {
		tooltip = not_initiated_border_incident_with_ROOT
		NOT = {
			any_state = {
				check_variable = { ROOT.defender_state_vs_@PREV = id }
			}
		}
	}
}

#State scope
has_ROOT_at_least_1_div_in_current_state_scope = {
	custom_trigger_tooltip = {
		tooltip = at_least_one_division_in_state
		ROOT = { divisions_in_state = { state = PREV size > 0 } }
	}
}

check_has_focus_tree_to_switch_to_fascism = {
	NOT = { tag = JAP }
	NOT = { tag = GER }
	NOT = { tag = MAN }
	NOT = { tag = ITA }
	OR = {
		NOT = {
			AND = {
				tag = SAF
				has_dlc = "Together for Victory"
			}
		}
		AND = {
			tag = SAF
			has_dlc = "Together for Victory"
			has_completed_focus = SAF_south_africa_first
		}
	}
	NOT = {
		AND = {
			tag = RAJ
			has_dlc = "Together for Victory"
		}
	}
	NOT = {
		AND = {
			tag = USA
			has_dlc = "Man the Guns"
		}
	}
	NOT = {
		AND = {
			tag = ENG
			has_dlc = "Man the Guns"
		}
	}
}

check_has_focus_tree_to_switch_to_democratic = {
	NOT = { tag = MAN }
	NOT = { tag = FRA }
	NOT = { tag = USA }
	NOT = { tag = ENG }
	NOT = { tag = CAN }
	NOT = { tag = SAF }
	NOT = { tag = AUS }
	NOT = { tag = NZL }
	NOT = { tag = RAJ }
	NOT = { tag = CZE }
	NOT = {
		AND = {
			tag = HUN
			has_dlc = "Death or Dishonor"
		}
	}
	NOT = {
		AND = {
			tag = JAP
			has_dlc = "Waking the Tiger"
		}
	}
	NOT = {
		AND = {
			tag = GER
			has_dlc = "Waking the Tiger"
		}
	}

}

check_has_focus_tree_to_switch_to_communism = {
	NOT = { tag = SOV }
	NOT = {
		AND = {
			tag = RAJ
			has_dlc = "Together for Victory"
		}
	}
	NOT = {
		AND = {
			tag = JAP
			has_dlc = "Waking the Tiger"
		}
	}
	NOT = {
		AND = {
			tag = USA
			has_dlc = "Man the Guns"
		}
	}
	NOT = {
		AND = {
			tag = ENG
			has_dlc = "Man the Guns"
		}
	}
}

#State scope
is_controlled_by_ROOT_or_subject = {
	custom_trigger_tooltip = {
		tooltip = is_controlled_by_ROOT_or_subject
		CONTROLLER = {
			OR = {
				tag = ROOT
				is_subject_of = ROOT
			}
		}
	}
}

#Country scope
is_free_or_subject_of_root = {
	OR = {
		is_subject = no
		is_subject_of = ROOT
	}
}

#State scope
is_controlled_by_ROOT_or_ally = {
	custom_trigger_tooltip = {
		tooltip = is_controlled_by_ROOT_or_ally
		CONTROLLER = {
			OR = {
				tag = ROOT
				is_subject_of = ROOT
				is_in_faction_with = ROOT
			}
		}
	}
}

is_csa_state = {
	OR = {
		state = 366
		state = 365
		state = 367
		state = 370
		state = 362
		state = 363
		state = 364
		state = 371
		state = 375
		state = 368
		state = 372
	}
}

ai_air_doctrine_tier_1_trigger = {
	OR = {
		has_tech = naval_strike_tactics
		has_tech = direct_ground_support
		#has_tech = low_echelon_support
	}
}

ai_air_doctrine_tier_2_trigger = {
	OR = {
		has_tech = multialtitude_flying
		has_tech = hunt_and_destroy
		#has_tech = operational_destruction
	}
}
ai_air_doctrine_tier_3_trigger = {
	OR = {
		has_tech = flying_fortress
		#has_tech = naval_strike_torpedo_tactics
		#has_tech = infiltration_bombing
	}
}

ai_land_doctrine_tier_1_trigger = {
	OR = {
		has_tech = elastic_defence
		has_tech = mobile_defence
		has_tech = grand_assault
		has_tech = defence_in_depth
	}
}

ai_land_doctrine_tier_2_trigger = {
	OR = {
		has_tech = kampfgruppe
		has_tech = mechanised_offensive
		has_tech = branch_interoperation
		has_tech = infiltration_assault
		has_tech = vast_offensives
		has_tech = large_front_offensive
	}
}

CHI_is_on_historical_plan_trigger = {
	
	
}
SOV_is_on_historical_plan_trigger = {
	
}
USA_is_on_historical_plan_trigger = {
	
}
ROM_is_on_historical_plan_trigger = {
	
}
HUN_is_on_historical_plan_trigger = {

}
ENG_is_on_historical_plan_trigger = {
	
}

SOV_save_pp_for_manpower_trouble = {
	has_manpower < 1000000
	has_political_power < 200
	surrender_progress > 0	
}

enemy_has_equal_or_better_radar_tech_trigger = {
	custom_trigger_tooltip = {
		tooltip = enemy_has_equal_or_better_radar_tech_trigger_tt
		if = {
			limit = {
				ROOT = { 
					has_tech = radio_detection 
					NOT = {
						has_tech = decimetric_radar
					}
				} 
			}
			FROM = { 
				OR = {
					has_tech = radio_detection 
					has_tech = decimetric_radar
				}
			}
		}
		else_if = {
			limit = {
				ROOT = { 
					has_tech = decimetric_radar 
					NOT = {
						has_tech = improved_decimetric_radar
					}
				} 
			}
			FROM = { 
				OR = {
					has_tech = decimetric_radar 
					has_tech = improved_decimetric_radar
				}
			}
		}
		else_if = {
			limit = {
				ROOT = { 
					has_tech = improved_decimetric_radar 
					NOT = {
						has_tech = centimetric_radar
					}
				} 
			}
			FROM = { 
				OR = {
					has_tech = improved_decimetric_radar 
					has_tech = centimetric_radar
				}
			}
		}
		else_if = {
			limit = {
				ROOT = { 
					has_tech = centimetric_radar 
					NOT = {
						has_tech = improved_centimetric_radar
					}
				} 
			}
			FROM = { 
				OR = {
					has_tech = centimetric_radar 
					has_tech = improved_centimetric_radar
				}
			}
		}
		else_if = {
			limit = {
				ROOT = { 
					has_tech = improved_centimetric_radar 
					NOT = {
						has_tech = advanced_centimetric_radar
					}
				} 
			}
			FROM = { 
				OR = {
					has_tech = improved_centimetric_radar 
					has_tech = advanced_centimetric_radar
				}
			}
		}
		#no more steps needed because end of research tree is reached
	}
}

is_available_to_collaboration_government = { # occupied_countries.1 should be updated along with this
	NOT = {
		any_country_with_original_tag = {
			original_tag_to_check = FROM
			is_puppet_of = PREV # if already created one do not create another
			has_autonomy_state = autonomy_collaboration_government
		}
	}
}